{
  "images" : [
    {
      "idiom" : "universal",
      "filename" : "Simulator Screen Shot - iPhone X - 2018-11-14 at 14.05.40.png"
    }
  ],
  "info" : {
    "version" : 1,
    "author" : "xcode"
  }
}